<?xml version="1.0" encoding="utf-8"?>
<!-- Generator: Adobe Illustrator 22.0.1, SVG Export Plug-In . SVG Version: 6.00 Build 0)  -->
<svg version="1.1" id="Layer_1" xmlns="http://www.w3.org/2000/svg" xmlns:xlink="http://www.w3.org/1999/xlink" x="0px" y="0px"
	 viewBox="0 0 100 125" style="enable-background:new 0 0 100 125;" xml:space="preserve">
<style type="text/css">
	.st0{fill:#2E5DB3;}
</style>
<g>
	<path class="st0" d="M23.1,19.6h22.8c4.7,0,8.8,3,10.4,7.4H23.1v9.9h33.2c-1.6,4.4-5.8,7.4-10.4,7.4h-28l43.6,46.3l6.9-7.1
		L40.9,54.4h5.5c9.9-0.3,18.1-7.7,20.3-17.3h13.7v-9.9H66.6c-0.5-2.7-1.6-5.2-3-7.4h16.7V10H23.1V19.6z"/>
</g>
</svg>
