<?xml version="1.0" encoding="utf-8"?>
<!-- Generator: Adobe Illustrator 19.1.0, SVG Export Plug-In . SVG Version: 6.00 Build 0)  -->
<svg version="1.1" id="Layer_1" xmlns="http://www.w3.org/2000/svg" xmlns:xlink="http://www.w3.org/1999/xlink" x="0px" y="0px"
	 viewBox="10 -22 100 125" style="enable-background:new 10 -22 100 125;" xml:space="preserve">
<style type="text/css">
	.st0{fill:#456FBB;}
</style>
<path class="st0" d="M101.1-0.1L55.3,45.2c-0.6,0.6-1.3,0.9-2.1,0.9l0,0c-0.8,0-1.6-0.3-2.1-0.9L32.8,26.7c-1.1-1.2-1-3.1,0.3-4.2
	c1.1-1,2.8-1,4,0l16.2,16.4L96.9-4.4c1.2-1.1,3.1-1,4.2,0.2C102.2-3,102.2-1.3,101.1-0.1z M82.5,26.5c-1.7,0-3,1.3-3,3v24.6H24.9
	V-0.4h55.4c1.7,0,3-1.3,3-3s-1.3-3-3-3H21.9c-1.7,0-3,1.3-3,3v60.5c0,1.7,1.3,3,3,3h60.5c1.7,0,3-1.3,3-3V29.5
	C85.5,27.8,84.1,26.5,82.5,26.5z"/>
</svg>
