<?xml version="1.0" encoding="utf-8"?>
<!-- Generator: Adobe Illustrator 22.0.1, SVG Export Plug-In . SVG Version: 6.00 Build 0)  -->
<svg version="1.1" id="Layer_1" xmlns="http://www.w3.org/2000/svg" xmlns:xlink="http://www.w3.org/1999/xlink" x="0px" y="0px"
	 viewBox="0 0 100 125" style="enable-background:new 0 0 100 125;" xml:space="preserve">
<style type="text/css">
	.st0{fill:#2E5EB3;}
	.st1{fill:#FFFFFF;}
</style>
<title>01</title>
<g>
	<path class="st0" d="M9,68h16v24l30.4-24H91V8H9V68z M17,66h66v-6H52.6L33,75.5L52.6,60H17V66z"/>
</g>
<rect x="25.9" y="24.5" class="st1" width="28.3" height="8"/>
<rect x="25.9" y="38.5" class="st1" width="48.3" height="8"/>
</svg>
