<?xml version="1.0" encoding="utf-8"?>
<!-- Generator: Adobe Illustrator 19.1.0, SVG Export Plug-In . SVG Version: 6.00 Build 0)  -->
<svg version="1.1" id="Layer_1" xmlns="http://www.w3.org/2000/svg" xmlns:xlink="http://www.w3.org/1999/xlink" x="0px" y="0px"
	 viewBox="0 0 2592 6048" style="enable-background:new 0 0 2592 6048;" xml:space="preserve">
<style type="text/css">
	.st0{fill:#476FB6;}
</style>
<path class="st0" d="M1103.2,2620.5h167.7l-10,26.3h-60c0,0,20.7,15.3,23,25h47l-10,26.6h-30c0,0,10.7,48-85.3,73.4l115,107.7h-39
	l-115.3-104.8c0,0-1.8-2.2-3-1.6v-12.6c0,0,51.8-5.8,80.2-33.9c0,0,12.3-10.7,10-28.2l-100.3-0.3l10.5-26.3l80.5,0.5
	c0,0-20.5-30.3-91-25.2L1103.2,2620.5z"/>
</svg>
