<?xml version="1.0" encoding="utf-8"?>
<!-- Generator: Adobe Illustrator 19.1.0, SVG Export Plug-In . SVG Version: 6.00 Build 0)  -->
<svg version="1.1" id="Layer_1" xmlns="http://www.w3.org/2000/svg" xmlns:xlink="http://www.w3.org/1999/xlink" x="0px" y="0px"
	 viewBox="0 0 2592 6048" style="enable-background:new 0 0 2592 6048;" xml:space="preserve">
<style type="text/css">
	.st0{fill:#4160AC;}
</style>
<path class="st0" d="M842.6,1632h1105.7l-65.9,173.7h-395.7c0,0,136.3,101.1,151.7,164.9h310l-65.9,175.6h-197.8
	c0,0,70.3,316.8-562.7,483.8l758.4,710H1623l-760.6-691c0,0-11.5-14.7-19.8-10.3v-83c0,0,341.8-37.9,528.7-223.7
	c0,0,81.3-70.3,65.9-185.8l-661.7-2.2l69.2-173.7l530.9,3.3c0,0-135.2-200-600.1-166L842.6,1632z"/>
</svg>
