<?xml version="1.0" encoding="utf-8"?>
<!-- Generator: Adobe Illustrator 19.1.0, SVG Export Plug-In . SVG Version: 6.00 Build 0)  -->
<svg version="1.1" id="Layer_1" xmlns="http://www.w3.org/2000/svg" xmlns:xlink="http://www.w3.org/1999/xlink" x="0px" y="0px"
	 viewBox="10 -22 100 125" style="enable-background:new 10 -22 100 125;" xml:space="preserve">
<style type="text/css">
	.st0{fill:#777676;}
</style>
<g transform="translate(0,-952.36218)">
	<path class="st0" d="M19,944.4c-1.6,0-3,1.4-3,3v66c0,1.6,1.4,3,3,3h82c1.6,0,3-1.4,3-3v-66c0-1.6-1.4-3-3-3H19z M19,946.4h82
		c0.6,0,1,0.4,1,1v17H18v-17C18,946.8,18.4,946.4,19,946.4z M37,951.4c-2.2,0-4,1.8-4,4s1.8,4,4,4c2.2,0,4-1.8,4-4
		S39.2,951.4,37,951.4z M83,951.4c-2.2,0-4,1.8-4,4s1.8,4,4,4s4-1.8,4-4S85.2,951.4,83,951.4z M18,966.4h84v47c0,0.6-0.4,1-1,1H19
		c-0.6,0-1-0.4-1-1V966.4z"/>
</g>
<path class="st0" d="M93.9,54.7l-0.5,0.6c-0.3,0.4-0.8,0.5-1.2,0.2l-22.1-17c-0.4-0.3-0.5-0.8-0.2-1.2l0.5-0.6
	c0.3-0.4,0.8-0.5,1.2-0.2l22.1,17C94.1,53.7,94.2,54.3,93.9,54.7z"/>
<path class="st0" d="M93.5,37.6L93.1,37c-0.3-0.4-0.8-0.5-1.2-0.2l-22.1,17c-0.4,0.3-0.5,0.8-0.2,1.2l0.5,0.6
	c0.3,0.4,0.8,0.5,1.2,0.2l22.1-17C93.8,38.5,93.8,38,93.5,37.6z"/>
</svg>
