<?xml version="1.0" encoding="utf-8"?>
<!-- Generator: Adobe Illustrator 19.1.0, SVG Export Plug-In . SVG Version: 6.00 Build 0)  -->
<svg version="1.1" id="Layer_1" xmlns="http://www.w3.org/2000/svg" xmlns:xlink="http://www.w3.org/1999/xlink" x="0px" y="0px"
	 viewBox="10 -22 100 125" style="enable-background:new 10 -22 100 125;" xml:space="preserve">
<style type="text/css">
	.st0{fill:#777676;}
</style>
<path class="st0" d="M71.5,16.8c0-6.3-5.1-11.5-11.5-11.5s-11.5,5.1-11.5,11.5c0,6.3,5.2,11.5,11.5,11.5S71.5,23.1,71.5,16.8z
	 M50.5,16.8c0-5.2,4.3-9.5,9.5-9.5s9.5,4.3,9.5,9.5s-4.3,9.5-9.5,9.5S50.5,22,50.5,16.8z M68.9,46.7c0.9-1.1,1.9-2.2,2.9-3.4
	C80,33.1,84,24.4,84,16.8C84,3.6,73.3-7.1,60.2-7.1h-0.3C46.7-7.1,36,3.6,36,16.8c0,7.6,4,16.3,12.3,26.5c1,1.2,1.9,2.3,2.9,3.4
	c-8,1.3-13,4.3-13,7.8c0,5.6,11.3,8.6,21.9,8.6s21.9-3,21.9-8.6C81.9,51,76.9,48,68.9,46.7z M49.8,42C41.8,32.2,38,23.9,38,16.8
	C38,4.7,47.8-5.1,59.8-5.1h0.3C72.2-5.1,82,4.7,82,16.8c0,7.1-3.9,15.4-11.8,25.2c-4.5,5.5-8.7,9.8-10.2,11.2
	C58.6,51.8,54.3,47.6,49.8,42z M60,61.1c-11.7,0-19.9-3.5-19.9-6.6c0-2.1,4.3-4.9,12.6-6c3.4,3.8,6.1,6.3,6.4,6.6
	c0.2,0.2,0.5,0.4,0.9,0.4c0.3,0,0.6-0.1,0.9-0.4c0,0,2.8-2.6,6.5-6.7c8.3,1.2,12.6,3.9,12.6,6C79.9,57.6,71.7,61.1,60,61.1z"/>
</svg>
