<?xml version="1.0" encoding="utf-8"?>
<!-- Generator: Adobe Illustrator 19.1.0, SVG Export Plug-In . SVG Version: 6.00 Build 0)  -->
<svg version="1.1" id="Layer_1" xmlns="http://www.w3.org/2000/svg" xmlns:xlink="http://www.w3.org/1999/xlink" x="0px" y="0px"
	 viewBox="10 -22 100 125" style="enable-background:new 10 -22 100 125;" xml:space="preserve">
<style type="text/css">
	.st0{fill:#777676;}
</style>
<path class="st0" d="M78.9-14.2H41.1c-2.8,0-5,2.2-5,5l0,0v69.6c0,2.8,2.2,5,5,5h37.8c2.8,0,5-2.2,5-5V-9.2
	C83.9-12,81.7-14.2,78.9-14.2z M81.9,60.3c0,1.7-1.3,3-3,3H41.1c-1.7,0-3-1.3-3-3V48.2h43.8V60.3L81.9,60.3z M81.9,46.3H38.1V-9.2
	c0-1.7,1.3-3,3-3h37.8c1.7,0,3,1.3,3,3V46.3L81.9,46.3z M65.4-7c0,0.6-0.4,1-1,1h-8.8c-0.6,0-1-0.4-1-1s0.4-1,1-1h8.8
	C64.9-8,65.4-7.6,65.4-7z M60,60.3c2.4,0,4.3-1.9,4.3-4.3c0-2.4-1.9-4.3-4.3-4.3c-2.4,0-4.3,1.9-4.3,4.3l0,0
	C55.7,58.4,57.6,60.3,60,60.3z M60,53.7c1.3,0,2.3,1,2.3,2.3c0,1.3-1,2.3-2.3,2.3s-2.3-1-2.3-2.3C57.7,54.7,58.7,53.7,60,53.7z"/>
</svg>
