<?xml version="1.0" encoding="utf-8"?>
<!-- Generator: Adobe Illustrator 19.1.0, SVG Export Plug-In . SVG Version: 6.00 Build 0)  -->
<svg version="1.1" id="Layer_1" xmlns="http://www.w3.org/2000/svg" xmlns:xlink="http://www.w3.org/1999/xlink" x="0px" y="0px"
	 viewBox="6 -6 512 512" style="enable-background:new 6 -6 512 512;" xml:space="preserve">
<style type="text/css">
	.st0{fill:#9D9C9C;}
</style>
<g>
	<g>
		<path class="st0" d="M16.2,239.8c0,135.5,110.3,245.8,245.8,245.8c35.2,0,69.2-7.3,101-21.7l79.2,41c1.4,0.7,2.9,1.1,4.4,1.1
			c2,0,4-0.6,5.6-1.8c3-2.1,4.5-5.7,3.9-9.3l-13.7-88.3c42.1-45.5,65.2-104.6,65.2-166.7C507.8,104.3,397.5-6,262-6
			S16.2,104.3,16.2,239.8z M35.6,239.8C35.6,114.9,137.1,13.3,262,13.3s226.4,101.6,226.4,226.4c0,58.8-22.4,114.5-63.1,156.8
			c-2.1,2.2-3,5.2-2.6,8.2l11.5,74.2l-66.5-34.5c-2.7-1.4-5.9-1.4-8.6-0.1c-30.5,14.5-63.1,21.8-97.1,21.8
			C137.1,466.2,35.6,364.6,35.6,239.8z"/>
	</g>
</g>
<g>
	<g>
		<path class="st0" d="M262,64.7c-28.2,0-51.2,23-51.2,51.2s23,51.2,51.2,51.2c28.2,0,51.2-23,51.2-51.2
			C313.2,87.7,290.2,64.7,262,64.7z M262,147.8c-17.6,0-31.9-14.3-31.9-31.9s14.3-31.9,31.9-31.9c17.6,0,31.9,14.3,31.9,31.9
			S279.6,147.8,262,147.8z"/>
	</g>
</g>
<g>
	<g>
		<path class="st0" d="M318.8,351.7h-11V193.1c0-5.3-4.3-9.7-9.7-9.7h-92.8c-5.3,0-9.7,4.3-9.7,9.7v32.1c0,5.3,4.3,9.7,9.7,9.7h11
			v116.8h-11c-5.3,0-9.7,4.3-9.7,9.7v32.1c0,5.3,4.3,9.7,9.7,9.7h113.5c5.3,0,9.7-4.3,9.7-9.7v-32.1
			C328.4,356.1,324.1,351.7,318.8,351.7z M309.1,383.9h-94.2v-12.8h11c5.3,0,9.7-4.3,9.7-9.7V225.3c0-5.3-4.3-9.7-9.7-9.7h-11v-12.8
			h73.5v158.6c0,5.3,4.3,9.7,9.7,9.7h11V383.9z"/>
	</g>
</g>
</svg>
