<?xml version="1.0" encoding="utf-8"?>
<!-- Generator: Adobe Illustrator 19.1.0, SVG Export Plug-In . SVG Version: 6.00 Build 0)  -->
<svg version="1.1" xmlns="http://www.w3.org/2000/svg" xmlns:xlink="http://www.w3.org/1999/xlink" x="0px" y="0px"
	 viewBox="0 0 80 80" width="27px" height="25px" style="enable-background:new 0 0 80 80;" xml:space="preserve">
<style type="text/css">
	.st0{fill:#194b8a;}
</style>
<g id="Layer_1">
</g>
<g id="Capa_1">
	<g>
		<path class="st0" d="M38.6,25.7H46V34h4.8V6.1c0-1.9-1.6-3.5-3.5-3.5H13c-1.9,0-3.5,1.6-3.5,3.5v70.6c0,1.9,1.6,3.5,3.5,3.5h12.3
			V57.6H35V38.7c0-2.1,1.5-3.8,3.7-4.4L38.6,25.7L38.6,25.7L38.6,25.7z M38.6,9.6H46v10.4h-7.3V9.6z M21.9,68.3h-7.3V57.8h7.3
			L21.9,68.3L21.9,68.3z M21.9,53h-7.3V42.6h7.3L21.9,53L21.9,53z M21.9,36.1h-7.3V25.7h7.3L21.9,36.1L21.9,36.1z M21.9,20.1h-7.3
			V9.6h7.3L21.9,20.1L21.9,20.1z M34.1,53h-7.3V42.6h7.3V53z M34.1,36.1h-7.3V25.7h7.3V36.1z M34.1,20.1h-7.3V9.6h7.3V20.1z
			 M70.4,36.7H41.3c-1.6,0-2.9,0.9-2.9,1.9v39.6c0,1.1,1.3,1.9,2.9,1.9h10.5V67.5h8.4v12.7h10.2c1.6,0,2.9-0.9,2.9-1.9V38.7
			C73.3,37.6,72,36.7,70.4,36.7z M48.8,73.5h-6.2v-5.8h6.2V73.5z M48.8,65h-6.2v-5.8h6.2V65z M48.8,55.5h-6.2v-5.8h6.2V55.5z
			 M48.8,46.5h-6.2v-5.8h6.2V46.5z M59.2,65H53v-5.8h6.2V65z M59.2,55.5H53v-5.8h6.2V55.5z M59.2,46.5H53v-5.8h6.2V46.5z M69.2,73.7
			H63v-5.8h6.2V73.7z M69.2,65H63v-5.8h6.2V65z M69.2,55.5H63v-5.8h6.2V55.5z M69.2,46.5H63v-5.8h6.2V46.5z"/>
	</g>
</g>
<g id="Isolation_Mode">
</g>
</svg>
