<?xml version="1.0" encoding="utf-8"?>
<!-- Generator: Adobe Illustrator 19.1.0, SVG Export Plug-In . SVG Version: 6.00 Build 0)  -->
<svg version="1.1" xmlns="http://www.w3.org/2000/svg" xmlns:xlink="http://www.w3.org/1999/xlink" x="0px" y="0px"
	 viewBox="0 0 80 80" width="27px" height="25px" style="enable-background:new 0 0 80 80;" xml:space="preserve">
<style type="text/css">
	.st0{fill:#194b8a;}
	.st1{fill:#FFFFFF;}
</style>
<g id="Layer_1">
	<g id="Layer_1_1_">
	</g>
	<g id="Capa_1">
	</g>
</g>
<g id="Capa_1_1_">
</g>
<g id="Isolation_Mode">
	<path class="st0" d="M63.3,54.9h2.3c3.3,0,5.9-2.6,5.9-5.7V22.7c0-3.2-2.7-5.7-5.9-5.7H15.2c-3.3,0-5.9,2.6-5.9,5.7v26.5
		c0,3.2,2.7,5.7,5.9,5.7h37.1l5.5,8.3L63.3,54.9z"/>
	<path class="st1" d="M31,35.9c0,1.8-1.4,3.2-3.2,3.2c-1.8,0-3.2-1.4-3.2-3.2c0-1.8,1.4-3.2,3.2-3.2C29.6,32.7,31,34.1,31,35.9z"/>
	<path class="st1" d="M39.8,32.7c-1.8,0-3.2,1.4-3.2,3.2c0,1.8,1.4,3.2,3.2,3.2c1.8,0,3.2-1.4,3.2-3.2C43,34.1,41.6,32.7,39.8,32.7z
		"/>
	<path class="st1" d="M51.8,32.7c-1.8,0-3.2,1.4-3.2,3.2c0,1.8,1.4,3.2,3.2,3.2c1.8,0,3.2-1.4,3.2-3.2S53.6,32.7,51.8,32.7z"/>
</g>
</svg>
