<?xml version="1.0" encoding="utf-8"?>
<!-- Generator: Adobe Illustrator 19.1.0, SVG Export Plug-In . SVG Version: 6.00 Build 0)  -->
<svg version="1.1" xmlns="http://www.w3.org/2000/svg" xmlns:xlink="http://www.w3.org/1999/xlink" x="0px" y="0px"
	 viewBox="0 0 80 80" width="27px" height="25px" style="enable-background:new 0 0 80 80;" xml:space="preserve">
<style type="text/css">
	.st0{fill:#194b8a;}
</style>
<g id="Layer_1">
</g>
<g id="Capa_1">
	<g>
		<g>
			<path class="st0" d="M27.1,33.9c0-0.2-0.1-0.4-0.2-0.6l-6.3-7.1c-0.1-0.2-0.3-0.3-0.5-0.3c-0.2,0-0.4,0.1-0.6,0.2
				c-2.9,2.5-5.3,5.5-7.1,8.9c-0.1,0.2-0.1,0.4-0.1,0.6c0.1,0.2,0.2,0.4,0.4,0.5l8.3,4.5c0.1,0.1,0.2,0.1,0.4,0.1
				c0.3,0,0.5-0.1,0.7-0.4c1.2-2.2,2.8-4.2,4.7-5.9C27,34.4,27.1,34.2,27.1,33.9z"/>
			<path class="st0" d="M29.9,31.3c0.1,0.3,0.4,0.4,0.7,0.4c0.1,0,0.3,0,0.4-0.1c2.2-1.2,4.6-2,7.1-2.3c0.4-0.1,0.7-0.5,0.7-0.9
				l-1.3-9.4c-0.1-0.4-0.5-0.7-0.9-0.7c-3.8,0.5-7.4,1.7-10.8,3.5c-0.4,0.2-0.5,0.7-0.3,1.1L29.9,31.3z"/>
			<path class="st0" d="M19.7,44l-9.1-2.5c-0.2-0.1-0.4,0-0.6,0.1s-0.3,0.3-0.4,0.5c-0.8,2.8-1.1,5.6-1.1,8.5c0,0.5,0,1,0,1.5
				c0,0.4,0.4,0.8,0.8,0.8c0,0,0,0,0,0l9.5-0.4c0.2,0,0.4-0.1,0.5-0.3c0.1-0.2,0.2-0.4,0.2-0.6c0-0.4,0-0.7,0-1
				c0-1.9,0.3-3.8,0.7-5.6C20.4,44.6,20.1,44.1,19.7,44z"/>
			<path class="st0" d="M55.1,21.3c-3.4-1.7-7.1-2.7-10.9-3.1c-0.2,0-0.4,0-0.6,0.2c-0.2,0.1-0.3,0.3-0.3,0.5l-0.9,9.4
				c0,0.4,0.3,0.8,0.7,0.9c2.5,0.2,4.9,0.9,7.2,2c0.1,0.1,0.2,0.1,0.3,0.1c0.1,0,0.2,0,0.3,0c0.2-0.1,0.4-0.2,0.5-0.4l4.1-8.5
				C55.7,22,55.5,21.5,55.1,21.3z"/>
			<path class="st0" d="M69,34.6c0.1-0.2,0-0.4-0.1-0.6c-2-3.3-4.5-6.2-7.4-8.6c-0.2-0.1-0.4-0.2-0.6-0.2c-0.2,0-0.4,0.1-0.5,0.3
				l-6,7.3c-0.1,0.2-0.2,0.4-0.2,0.6c0,0.2,0.1,0.4,0.3,0.5c2,1.6,3.6,3.5,4.9,5.7c0.1,0.2,0.4,0.4,0.7,0.4c0.1,0,0.3,0,0.4-0.1
				l8.1-4.9C68.8,34.9,69,34.8,69,34.6z"/>
			<path class="st0" d="M72,40.9c-0.1-0.4-0.6-0.6-1-0.5l-9,2.8c-0.4,0.1-0.6,0.6-0.5,1c0.6,2.1,1,4.2,1,6.4c0,0.3,0,0.7,0,1
				c0,0.2,0.1,0.4,0.2,0.6c0.1,0.2,0.3,0.2,0.5,0.3l9.5,0.4c0,0,0,0,0,0c0.4,0,0.8-0.3,0.8-0.8c0-0.5,0-1,0-1.5
				C73.5,47.3,73,44,72,40.9z"/>
			<path class="st0" d="M41,48.9c-0.1,0-0.3,0-0.4,0l-12.8-7.6c-0.3-0.2-0.7-0.1-1,0.1c-0.3,0.3-0.3,0.6-0.2,1l7,13.1
				c0,0.3,0,0.5,0,0.8c0,2,0.8,3.8,2.2,5.2c1.4,1.4,3.3,2.2,5.2,2.2s3.8-0.8,5.2-2.2c1.4-1.4,2.2-3.3,2.2-5.2c0-2-0.8-3.8-2.2-5.2
				C44.8,49.7,42.9,48.9,41,48.9z"/>
		</g>
	</g>
</g>
<g id="Isolation_Mode">
</g>
</svg>
