<?xml version="1.0" encoding="utf-8"?>
<!-- Generator: Adobe Illustrator 19.1.0, SVG Export Plug-In . SVG Version: 6.00 Build 0)  -->
<svg version="1.1" xmlns="http://www.w3.org/2000/svg" xmlns:xlink="http://www.w3.org/1999/xlink" x="0px" y="0px"
	 viewBox="0 0 80 80" width="27px" height="25px" style="enable-background:new 0 0 80 80;" xml:space="preserve">
<style type="text/css">
	.st0{fill:#194b8a;}
	.st1{fill:#FFFFFF;}
</style>
<g id="Layer_1">
	<g id="Layer_1_1_">
	</g>
	<g id="Capa_1">
	</g>
</g>
<g id="Capa_1_1_">
	<polygon class="st0" points="51.5,10 17.5,10 17.5,73 66.8,73 66.8,25.3 	"/>
	<polygon class="st1" points="50,26.8 50,12.1 64.8,26.8 	"/>
	<g>
		<path class="st1" d="M41.8,66.1L41.8,66.1c-0.7,0-1.3-0.6-1.3-1.3l0-28.5c0-0.7,0.6-1.3,1.3-1.3l0,0c0.7,0,1.3,0.6,1.3,1.3l0,28.5
			C43.1,65.5,42.5,66.1,41.8,66.1z"/>
		<path class="st1" d="M52.7,48.5c-0.3,0-0.6-0.1-0.9-0.4l-10-10l-10,10c-0.5,0.5-1.3,0.5-1.8,0s-0.5-1.3,0-1.8l10.9-10.9
			c0.5-0.5,1.3-0.5,1.8,0l10.9,10.9c0.5,0.5,0.5,1.3,0,1.8C53.3,48.4,53,48.5,52.7,48.5z"/>
	</g>
</g>
</svg>
